<svg id="light-mode" xmlns="http://www.w3.org/2000/svg" height="36" width="36" viewBox="0 0 48 48">
    <path
        d="M24 31Q26.9 31 28.95 28.95Q31 26.9 31 24Q31 21.1 28.95 19.05Q26.9 17 24 17Q21.1 17 19.05 19.05Q17 21.1 17 24Q17 26.9 19.05 28.95Q21.1 31 24 31ZM24 34Q19.85 34 16.925 31.075Q14 28.15 14 24Q14 19.85 16.925 16.925Q19.85 14 24 14Q28.15 14 31.075 16.925Q34 19.85 34 24Q34 28.15 31.075 31.075Q28.15 34 24 34ZM3.5 25.5Q2.85 25.5 2.425 25.075Q2 24.65 2 24Q2 23.35 2.425 22.925Q2.85 22.5 3.5 22.5H8.5Q9.15 22.5 9.575 22.925Q10 23.35 10 24Q10 24.65 9.575 25.075Q9.15 25.5 8.5 25.5ZM39.5 25.5Q38.85 25.5 38.425 25.075Q38 24.65 38 24Q38 23.35 38.425 22.925Q38.85 22.5 39.5 22.5H44.5Q45.15 22.5 45.575 22.925Q46 23.35 46 24Q46 24.65 45.575 25.075Q45.15 25.5 44.5 25.5ZM24 10Q23.35 10 22.925 9.575Q22.5 9.15 22.5 8.5V3.5Q22.5 2.85 22.925 2.425Q23.35 2 24 2Q24.65 2 25.075 2.425Q25.5 2.85 25.5 3.5V8.5Q25.5 9.15 25.075 9.575Q24.65 10 24 10ZM24 46Q23.35 46 22.925 45.575Q22.5 45.15 22.5 44.5V39.5Q22.5 38.85 22.925 38.425Q23.35 38 24 38Q24.65 38 25.075 38.425Q25.5 38.85 25.5 39.5V44.5Q25.5 45.15 25.075 45.575Q24.65 46 24 46ZM12 14.1 9.15 11.3Q8.7 10.85 8.725 10.225Q8.75 9.6 9.15 9.15Q9.6 8.7 10.225 8.7Q10.85 8.7 11.3 9.15L14.1 12Q14.5 12.45 14.5 13.05Q14.5 13.65 14.1 14.05Q13.7 14.5 13.075 14.5Q12.45 14.5 12 14.1ZM36.7 38.85 33.9 36Q33.5 35.55 33.5 34.925Q33.5 34.3 33.95 33.9Q34.35 33.45 34.95 33.45Q35.55 33.45 36 33.9L38.85 36.7Q39.3 37.15 39.275 37.775Q39.25 38.4 38.85 38.85Q38.4 39.3 37.775 39.3Q37.15 39.3 36.7 38.85ZM33.9 14.1Q33.45 13.65 33.45 13.05Q33.45 12.45 33.9 12L36.7 9.15Q37.15 8.7 37.775 8.725Q38.4 8.75 38.85 9.15Q39.3 9.6 39.3 10.225Q39.3 10.85 38.85 11.3L36 14.1Q35.6 14.5 34.975 14.5Q34.35 14.5 33.9 14.1ZM9.15 38.85Q8.7 38.4 8.7 37.775Q8.7 37.15 9.15 36.7L12 33.9Q12.45 33.45 13.05 33.45Q13.65 33.45 14.1 33.9Q14.55 34.35 14.55 34.95Q14.55 35.55 14.1 36L11.3 38.85Q10.85 39.3 10.225 39.275Q9.6 39.25 9.15 38.85ZM24 24Q24 24 24 24Q24 24 24 24Q24 24 24 24Q24 24 24 24Q24 24 24 24Q24 24 24 24Q24 24 24 24Q24 24 24 24Z" />
</svg>
